%YAML 1.1
%TAG !u! tag:unity3d.com,2011:
--- !u!74 &7400000
AnimationClip:
  m_ObjectHideFlags: 0
  m_PrefabParentObject: {fileID: 0}
  m_PrefabInternal: {fileID: 0}
  m_Name: Char_march
  serializedVersion: 6
  m_Legacy: 0
  m_Compressed: 0
  m_UseHighQualityCurve: 1
  m_RotationCurves: []
  m_CompressedRotationCurves: []
  m_EulerCurves:
  - curve:
      serializedVersion: 2
      m_Curve:
      - time: 0
        value: {x: 0, y: 0, z: 0.3732}
        inSlope: {x: 0, y: 0, z: 28.880398}
        outSlope: {x: 0, y: 0, z: 28.880398}
        tangentMode: 0
      - time: 0.33333334
        value: {x: 0, y: 0, z: 10}
        inSlope: {x: 0, y: 0, z: -9.559801}
        outSlope: {x: 0, y: 0, z: -9.559801}
        tangentMode: 0
      - time: 0.75
        value: {x: 0, y: 0, z: -10}
        inSlope: {x: 0, y: 0, z: -4}
        outSlope: {x: 0, y: 0, z: -4}
        tangentMode: 0
      - time: 1
        value: {x: 0, y: 0, z: 0}
        inSlope: {x: 0, y: 0, z: 40}
        outSlope: {x: 0, y: 0, z: 40}
        tangentMode: 0
      m_PreInfinity: 2
      m_PostInfinity: 2
      m_RotationOrder: 4
    path: tete
  m_PositionCurves:
  - curve:
      serializedVersion: 2
      m_Curve:
      - time: 0
        value: {x: -0.17, y: 0.13, z: 0}
        inSlope: {x: 0, y: 0.21000002, z: 0}
        outSlope: {x: 0, y: 0.21000002, z: 0}
        tangentMode: 0
      - time: 0.33333334
        value: {x: -0.17, y: 0.2, z: 0}
        inSlope: {x: 0, y: 0.00000023032007, z: 0}
        outSlope: {x: 0, y: -0.05198038, z: 0}
        tangentMode: 0
      - time: 0.75
        value: {x: -0.17, y: -0.26, z: 0}
        inSlope: {x: 0, y: -0.1049999, z: 0}
        outSlope: {x: 0, y: -0.1049999, z: 0}
        tangentMode: 0
      - time: 1
        value: {x: -0.17, y: 0.13, z: 0}
        inSlope: {x: 0, y: 1.1700001, z: 0}
        outSlope: {x: 0, y: 1.1700001, z: 0}
        tangentMode: 0
      m_PreInfinity: 2
      m_PostInfinity: 2
      m_RotationOrder: 4
    path: pied_g
  - curve:
      serializedVersion: 2
      m_Curve:
      - time: 0
        value: {x: 0.168, y: 0.12, z: 0}
        inSlope: {x: 0, y: -1.149, z: 0}
        outSlope: {x: 0, y: -1.149, z: 0}
        tangentMode: 0
      - time: 0.33333334
        value: {x: 0.168, y: -0.263, z: 0}
        inSlope: {x: 0, y: -0.022499979, z: 0}
        outSlope: {x: 0, y: -0.022499979, z: 0}
        tangentMode: 0
      - time: 0.75
        value: {x: 0.168, y: 0.197, z: 0}
        inSlope: {x: 0, y: 0.39800006, z: 0}
        outSlope: {x: 0, y: 0.39800006, z: 0}
        tangentMode: 0
      - time: 1
        value: {x: 0.168, y: 0.12, z: 0}
        inSlope: {x: 0, y: -0.308, z: 0}
        outSlope: {x: 0, y: -0.308, z: 0}
        tangentMode: 0
      m_PreInfinity: 2
      m_PostInfinity: 2
      m_RotationOrder: 4
    path: pied_d
  - curve:
      serializedVersion: 2
      m_Curve:
      - time: 0
        value: {x: 0.374, y: -0.043, z: 0}
        inSlope: {x: 0, y: 0.273, z: 0}
        outSlope: {x: 0, y: 0.273, z: 0}
        tangentMode: 0
      - time: 0.33333334
        value: {x: 0.374, y: 0.048, z: 0}
        inSlope: {x: 0, y: 0.0020999908, z: 0}
        outSlope: {x: 0, y: 0.0020999908, z: 0}
        tangentMode: 0
      - time: 0.75
        value: {x: 0.374, y: -0.064, z: 0}
        inSlope: {x: 0, y: -0.09240001, z: 0}
        outSlope: {x: 0, y: -0.09240001, z: 0}
        tangentMode: 0
      - time: 1
        value: {x: 0.374, y: -0.043, z: 0}
        inSlope: {x: 0, y: 0.08400001, z: 0}
        outSlope: {x: 0, y: 0.08400001, z: 0}
        tangentMode: 0
      m_PreInfinity: 2
      m_PostInfinity: 2
      m_RotationOrder: 4
    path: epaule_d
  - curve:
      serializedVersion: 2
      m_Curve:
      - time: 0
        value: {x: -0.387, y: -0.004, z: 0}
        inSlope: {x: 0, y: -0.21, z: 0}
        outSlope: {x: 0, y: -0.21, z: 0}
        tangentMode: 0
      - time: 0.33333334
        value: {x: -0.387, y: -0.074, z: 0}
        inSlope: {x: 0, y: 0.037800007, z: 0}
        outSlope: {x: 0, y: 0.037800007, z: 0}
        tangentMode: 0
      - time: 0.75
        value: {x: -0.387, y: 0.045, z: 0}
        inSlope: {x: 0, y: 0.0448, z: 0}
        outSlope: {x: 0, y: 0.0448, z: 0}
        tangentMode: 0
      - time: 1
        value: {x: -0.387, y: -0.004, z: 0}
        inSlope: {x: 0, y: -0.19600001, z: 0}
        outSlope: {x: 0, y: -0.19600001, z: 0}
        tangentMode: 0
      m_PreInfinity: 2
      m_PostInfinity: 2
      m_RotationOrder: 4
    path: epaule_g
  m_ScaleCurves: []
  m_FloatCurves: []
  m_PPtrCurves: []
  m_SampleRate: 60
  m_WrapMode: 0
  m_Bounds:
    m_Center: {x: 0, y: 0, z: 0}
    m_Extent: {x: 0, y: 0, z: 0}
  m_ClipBindingConstant:
    genericBindings:
    - path: 2198956275
      attribute: 1
      script: {fileID: 0}
      classID: 4
      customType: 0
      isPPtrCurve: 0
    - path: 437795145
      attribute: 1
      script: {fileID: 0}
      classID: 4
      customType: 0
      isPPtrCurve: 0
    - path: 2882254711
      attribute: 1
      script: {fileID: 0}
      classID: 4
      customType: 0
      isPPtrCurve: 0
    - path: 851633869
      attribute: 1
      script: {fileID: 0}
      classID: 4
      customType: 0
      isPPtrCurve: 0
    - path: 4253993017
      attribute: 4
      script: {fileID: 0}
      classID: 4
      customType: 14
      isPPtrCurve: 0
    pptrCurveMapping: []
  m_AnimationClipSettings:
    serializedVersion: 2
    m_AdditiveReferencePoseClip: {fileID: 0}
    m_AdditiveReferencePoseTime: 0
    m_StartTime: 0
    m_StopTime: 1
    m_OrientationOffsetY: 0
    m_Level: 0
    m_CycleOffset: 0
    m_HasAdditiveReferencePose: 0
    m_LoopTime: 1
    m_LoopBlend: 0
    m_LoopBlendOrientation: 0
    m_LoopBlendPositionY: 0
    m_LoopBlendPositionXZ: 0
    m_KeepOriginalOrientation: 0
    m_KeepOriginalPositionY: 1
    m_KeepOriginalPositionXZ: 0
    m_HeightFromFeet: 0
    m_Mirror: 0
  m_EditorCurves:
  - curve:
      serializedVersion: 2
      m_Curve:
      - time: 0
        value: -0.17
        inSlope: 0
        outSlope: 0
        tangentMode: 10
      - time: 0.33333334
        value: -0.17
        inSlope: 0
        outSlope: 0
        tangentMode: 10
      - time: 0.75
        value: -0.17
        inSlope: 0
        outSlope: 0
        tangentMode: 10
      - time: 1
        value: -0.17
        inSlope: 0
        outSlope: 0
        tangentMode: 10
      m_PreInfinity: 2
      m_PostInfinity: 2
      m_RotationOrder: 4
    attribute: m_LocalPosition.x
    path: pied_g
    classID: 4
    script: {fileID: 0}
  - curve:
      serializedVersion: 2
      m_Curve:
      - time: 0
        value: 0.13
        inSlope: 0.21000002
        outSlope: 0.21000002
        tangentMode: 1
      - time: 0.33333334
        value: 0.2
        inSlope: 0.00000023032007
        outSlope: -0.05198038
        tangentMode: 1
      - time: 0.75
        value: -0.26
        inSlope: -0.1049999
        outSlope: -0.1049999
        tangentMode: 1
      - time: 1
        value: 0.13
        inSlope: 1.1700001
        outSlope: 1.1700001
        tangentMode: 1
      m_PreInfinity: 2
      m_PostInfinity: 2
      m_RotationOrder: 4
    attribute: m_LocalPosition.y
    path: pied_g
    classID: 4
    script: {fileID: 0}
  - curve:
      serializedVersion: 2
      m_Curve:
      - time: 0
        value: 0
        inSlope: 0
        outSlope: 0
        tangentMode: 10
      - time: 0.33333334
        value: 0
        inSlope: 0
        outSlope: 0
        tangentMode: 10
      - time: 0.75
        value: 0
        inSlope: 0
        outSlope: 0
        tangentMode: 10
      - time: 1
        value: 0
        inSlope: 0
        outSlope: 0
        tangentMode: 10
      m_PreInfinity: 2
      m_PostInfinity: 2
      m_RotationOrder: 4
    attribute: m_LocalPosition.z
    path: pied_g
    classID: 4
    script: {fileID: 0}
  - curve:
      serializedVersion: 2
      m_Curve:
      - time: 0
        value: 0.168
        inSlope: 0
        outSlope: 0
        tangentMode: 10
      - time: 0.33333334
        value: 0.168
        inSlope: 0
        outSlope: 0
        tangentMode: 10
      - time: 0.75
        value: 0.168
        inSlope: 0
        outSlope: 0
        tangentMode: 10
      - time: 1
        value: 0.168
        inSlope: 0
        outSlope: 0
        tangentMode: 10
      m_PreInfinity: 2
      m_PostInfinity: 2
      m_RotationOrder: 4
    attribute: m_LocalPosition.x
    path: pied_d
    classID: 4
    script: {fileID: 0}
  - curve:
      serializedVersion: 2
      m_Curve:
      - time: 0
        value: 0.12
        inSlope: -1.149
        outSlope: -1.149
        tangentMode: 10
      - time: 0.33333334
        value: -0.263
        inSlope: -0.022499979
        outSlope: -0.022499979
        tangentMode: 10
      - time: 0.75
        value: 0.197
        inSlope: 0.39800006
        outSlope: 0.39800006
        tangentMode: 10
      - time: 1
        value: 0.12
        inSlope: -0.308
        outSlope: -0.308
        tangentMode: 10
      m_PreInfinity: 2
      m_PostInfinity: 2
      m_RotationOrder: 4
    attribute: m_LocalPosition.y
    path: pied_d
    classID: 4
    script: {fileID: 0}
  - curve:
      serializedVersion: 2
      m_Curve:
      - time: 0
        value: 0
        inSlope: 0
        outSlope: 0
        tangentMode: 10
      - time: 0.33333334
        value: 0
        inSlope: 0
        outSlope: 0
        tangentMode: 10
      - time: 0.75
        value: 0
        inSlope: 0
        outSlope: 0
        tangentMode: 10
      - time: 1
        value: 0
        inSlope: 0
        outSlope: 0
        tangentMode: 10
      m_PreInfinity: 2
      m_PostInfinity: 2
      m_RotationOrder: 4
    attribute: m_LocalPosition.z
    path: pied_d
    classID: 4
    script: {fileID: 0}
  - curve:
      serializedVersion: 2
      m_Curve:
      - time: 0
        value: 0.374
        inSlope: 0
        outSlope: 0
        tangentMode: 10
      - time: 0.33333334
        value: 0.374
        inSlope: 0
        outSlope: 0
        tangentMode: 10
      - time: 0.75
        value: 0.374
        inSlope: 0
        outSlope: 0
        tangentMode: 10
      - time: 1
        value: 0.374
        inSlope: 0
        outSlope: 0
        tangentMode: 10
      m_PreInfinity: 2
      m_PostInfinity: 2
      m_RotationOrder: 4
    attribute: m_LocalPosition.x
    path: epaule_d
    classID: 4
    script: {fileID: 0}
  - curve:
      serializedVersion: 2
      m_Curve:
      - time: 0
        value: -0.043
        inSlope: 0.273
        outSlope: 0.273
        tangentMode: 10
      - time: 0.33333334
        value: 0.048
        inSlope: 0.0020999908
        outSlope: 0.0020999908
        tangentMode: 10
      - time: 0.75
        value: -0.064
        inSlope: -0.09240001
        outSlope: -0.09240001
        tangentMode: 10
      - time: 1
        value: -0.043
        inSlope: 0.08400001
        outSlope: 0.08400001
        tangentMode: 10
      m_PreInfinity: 2
      m_PostInfinity: 2
      m_RotationOrder: 4
    attribute: m_LocalPosition.y
    path: epaule_d
    classID: 4
    script: {fileID: 0}
  - curve:
      serializedVersion: 2
      m_Curve:
      - time: 0
        value: 0
        inSlope: 0
        outSlope: 0
        tangentMode: 10
      - time: 0.33333334
        value: 0
        inSlope: 0
        outSlope: 0
        tangentMode: 10
      - time: 0.75
        value: 0
        inSlope: 0
        outSlope: 0
        tangentMode: 10
      - time: 1
        value: 0
        inSlope: 0
        outSlope: 0
        tangentMode: 10
      m_PreInfinity: 2
      m_PostInfinity: 2
      m_RotationOrder: 4
    attribute: m_LocalPosition.z
    path: epaule_d
    classID: 4
    script: {fileID: 0}
  - curve:
      serializedVersion: 2
      m_Curve:
      - time: 0
        value: -0.387
        inSlope: 0
        outSlope: 0
        tangentMode: 10
      - time: 0.33333334
        value: -0.387
        inSlope: 0
        outSlope: 0
        tangentMode: 10
      - time: 0.75
        value: -0.387
        inSlope: 0
        outSlope: 0
        tangentMode: 10
      - time: 1
        value: -0.387
        inSlope: 0
        outSlope: 0
        tangentMode: 10
      m_PreInfinity: 2
      m_PostInfinity: 2
      m_RotationOrder: 4
    attribute: m_LocalPosition.x
    path: epaule_g
    classID: 4
    script: {fileID: 0}
  - curve:
      serializedVersion: 2
      m_Curve:
      - time: 0
        value: -0.004
        inSlope: -0.21
        outSlope: -0.21
        tangentMode: 10
      - time: 0.33333334
        value: -0.074
        inSlope: 0.037800007
        outSlope: 0.037800007
        tangentMode: 10
      - time: 0.75
        value: 0.045
        inSlope: 0.0448
        outSlope: 0.0448
        tangentMode: 10
      - time: 1
        value: -0.004
        inSlope: -0.19600001
        outSlope: -0.19600001
        tangentMode: 10
      m_PreInfinity: 2
      m_PostInfinity: 2
      m_RotationOrder: 4
    attribute: m_LocalPosition.y
    path: epaule_g
    classID: 4
    script: {fileID: 0}
  - curve:
      serializedVersion: 2
      m_Curve:
      - time: 0
        value: 0
        inSlope: 0
        outSlope: 0
        tangentMode: 10
      - time: 0.33333334
        value: 0
        inSlope: 0
        outSlope: 0
        tangentMode: 10
      - time: 0.75
        value: 0
        inSlope: 0
        outSlope: 0
        tangentMode: 10
      - time: 1
        value: 0
        inSlope: 0
        outSlope: 0
        tangentMode: 10
      m_PreInfinity: 2
      m_PostInfinity: 2
      m_RotationOrder: 4
    attribute: m_LocalPosition.z
    path: epaule_g
    classID: 4
    script: {fileID: 0}
  - curve:
      serializedVersion: 2
      m_Curve:
      - time: 0
        value: 0
        inSlope: 0
        outSlope: 0
        tangentMode: 10
      - time: 0.33333334
        value: 0
        inSlope: 0
        outSlope: 0
        tangentMode: 10
      - time: 0.75
        value: 0
        inSlope: 0
        outSlope: 0
        tangentMode: 10
      m_PreInfinity: 2
      m_PostInfinity: 2
      m_RotationOrder: 4
    attribute: localEulerAnglesRaw.x
    path: tete
    classID: 4
    script: {fileID: 0}
  - curve:
      serializedVersion: 2
      m_Curve:
      - time: 0
        value: 0
        inSlope: 0
        outSlope: 0
        tangentMode: 10
      - time: 0.33333334
        value: 0
        inSlope: 0
        outSlope: 0
        tangentMode: 10
      - time: 0.75
        value: 0
        inSlope: 0
        outSlope: 0
        tangentMode: 10
      m_PreInfinity: 2
      m_PostInfinity: 2
      m_RotationOrder: 4
    attribute: localEulerAnglesRaw.y
    path: tete
    classID: 4
    script: {fileID: 0}
  - curve:
      serializedVersion: 2
      m_Curve:
      - time: 0
        value: 0.3732
        inSlope: 28.880398
        outSlope: 28.880398
        tangentMode: 10
      - time: 0.33333334
        value: 10
        inSlope: -9.559801
        outSlope: -9.559801
        tangentMode: 10
      - time: 0.75
        value: -10
        inSlope: -4
        outSlope: -4
        tangentMode: 10
      - time: 1
        value: 0
        inSlope: 40
        outSlope: 40
        tangentMode: 10
      m_PreInfinity: 2
      m_PostInfinity: 2
      m_RotationOrder: 4
    attribute: localEulerAnglesRaw.z
    path: tete
    classID: 4
    script: {fileID: 0}
  m_EulerEditorCurves:
  - curve:
      serializedVersion: 2
      m_Curve: []
      m_PreInfinity: 2
      m_PostInfinity: 2
      m_RotationOrder: 4
    attribute: m_LocalEulerAngles.x
    path: tete
    classID: 4
    script: {fileID: 0}
  - curve:
      serializedVersion: 2
      m_Curve: []
      m_PreInfinity: 2
      m_PostInfinity: 2
      m_RotationOrder: 4
    attribute: m_LocalEulerAngles.y
    path: tete
    classID: 4
    script: {fileID: 0}
  - curve:
      serializedVersion: 2
      m_Curve: []
      m_PreInfinity: 2
      m_PostInfinity: 2
      m_RotationOrder: 4
    attribute: m_LocalEulerAngles.z
    path: tete
    classID: 4
    script: {fileID: 0}
  m_HasGenericRootTransform: 0
  m_HasMotionFloatCurves: 0
  m_GenerateMotionCurves: 0
  m_Events: []
