%YAML 1.1
%TAG !u! tag:unity3d.com,2011:
--- !u!74 &7400000
AnimationClip:
  m_ObjectHideFlags: 0
  m_PrefabParentObject: {fileID: 0}
  m_PrefabInternal: {fileID: 0}
  m_Name: Char_idle
  serializedVersion: 6
  m_Legacy: 0
  m_Compressed: 0
  m_UseHighQualityCurve: 1
  m_RotationCurves: []
  m_CompressedRotationCurves: []
  m_PositionCurves:
  - curve:
      serializedVersion: 2
      m_Curve:
      - time: 0
        value: {x: -.386999995, y: -.00400000019, z: 0}
        inSlope: {x: 0, y: -.0639999956, z: 0}
        outSlope: {x: 0, y: -.0639999956, z: 0}
        tangentMode: 0
      - time: .25
        value: {x: -.386999995, y: -.0199999996, z: 0}
        inSlope: {x: 0, y: -.0119999982, z: 0}
        outSlope: {x: 0, y: -.0119999982, z: 0}
        tangentMode: 0
      - time: .75
        value: {x: -.386999995, y: 0, z: 0}
        inSlope: {x: 0, y: .0119999992, z: 0}
        outSlope: {x: 0, y: .0119999992, z: 0}
        tangentMode: 0
      - time: 1
        value: {x: -.386999995, y: -.00400000019, z: 0}
        inSlope: {x: 0, y: -.0160000008, z: 0}
        outSlope: {x: 0, y: -.0160000008, z: 0}
        tangentMode: 0
      m_PreInfinity: 2
      m_PostInfinity: 2
    path: epaule_g
  - curve:
      serializedVersion: 2
      m_Curve:
      - time: 0
        value: {x: .374000013, y: -.0430000015, z: 0}
        inSlope: {x: 0, y: -.0279999971, z: 0}
        outSlope: {x: 0, y: -.0279999971, z: 0}
        tangentMode: 0
      - time: .25
        value: {x: .374000013, y: -.0500000007, z: 0}
        inSlope: {x: 0, y: .00600000285, z: 0}
        outSlope: {x: 0, y: .00600000285, z: 0}
        tangentMode: 0
      - time: .75
        value: {x: .374000013, y: -.0299999993, z: 0}
        inSlope: {x: 0, y: -.00600000285, z: 0}
        outSlope: {x: 0, y: -.00600000285, z: 0}
        tangentMode: 0
      - time: 1
        value: {x: .374000013, y: -.0430000015, z: 0}
        inSlope: {x: 0, y: -.0520000085, z: 0}
        outSlope: {x: 0, y: -.0520000085, z: 0}
        tangentMode: 0
      m_PreInfinity: 2
      m_PostInfinity: 2
    path: epaule_d
  - curve:
      serializedVersion: 2
      m_Curve:
      - time: 0
        value: {x: -.00300000003, y: .00600000005, z: 0}
        inSlope: {x: 0, y: -.0340000018, z: 0}
        outSlope: {x: 0, y: -.0340000018, z: 0}
        tangentMode: 0
      - time: .5
        value: {x: -.00300000003, y: -.0109999999, z: 0}
        inSlope: {x: 0, y: 0, z: 0}
        outSlope: {x: 0, y: 0, z: 0}
        tangentMode: 0
      - time: 1
        value: {x: -.00300000003, y: .00600000005, z: 0}
        inSlope: {x: 0, y: .0340000018, z: 0}
        outSlope: {x: 0, y: .0340000018, z: 0}
        tangentMode: 0
      m_PreInfinity: 2
      m_PostInfinity: 2
    path: tete
  m_ScaleCurves: []
  m_FloatCurves: []
  m_PPtrCurves: []
  m_SampleRate: 60
  m_WrapMode: 0
  m_Bounds:
    m_Center: {x: 0, y: 0, z: 0}
    m_Extent: {x: 0, y: 0, z: 0}
  m_ClipBindingConstant:
    genericBindings:
    - path: 851633869
      attribute: 1
      script: {fileID: 0}
      classID: 4
      customType: 0
      isPPtrCurve: 0
    - path: 2882254711
      attribute: 1
      script: {fileID: 0}
      classID: 4
      customType: 0
      isPPtrCurve: 0
    - path: 4253993017
      attribute: 1
      script: {fileID: 0}
      classID: 4
      customType: 0
      isPPtrCurve: 0
    pptrCurveMapping: []
  m_AnimationClipSettings:
    serializedVersion: 2
    m_StartTime: 0
    m_StopTime: 1
    m_OrientationOffsetY: 0
    m_Level: 0
    m_CycleOffset: 0
    m_LoopTime: 1
    m_LoopBlend: 0
    m_LoopBlendOrientation: 0
    m_LoopBlendPositionY: 0
    m_LoopBlendPositionXZ: 0
    m_KeepOriginalOrientation: 0
    m_KeepOriginalPositionY: 1
    m_KeepOriginalPositionXZ: 0
    m_HeightFromFeet: 0
    m_Mirror: 0
  m_EditorCurves:
  - curve:
      serializedVersion: 2
      m_Curve:
      - time: 0
        value: -.386999995
        inSlope: 0
        outSlope: 0
        tangentMode: 10
      - time: .25
        value: -.386999995
        inSlope: 0
        outSlope: 0
        tangentMode: 10
      - time: .75
        value: -.386999995
        inSlope: 0
        outSlope: 0
        tangentMode: 10
      - time: 1
        value: -.386999995
        inSlope: 0
        outSlope: 0
        tangentMode: 10
      m_PreInfinity: 2
      m_PostInfinity: 2
    attribute: m_LocalPosition.x
    path: epaule_g
    classID: 4
    script: {fileID: 0}
  - curve:
      serializedVersion: 2
      m_Curve:
      - time: 0
        value: -.00400000019
        inSlope: -.0639999956
        outSlope: -.0639999956
        tangentMode: 10
      - time: .25
        value: -.0199999996
        inSlope: -.0119999982
        outSlope: -.0119999982
        tangentMode: 10
      - time: .75
        value: 0
        inSlope: .0119999992
        outSlope: .0119999992
        tangentMode: 10
      - time: 1
        value: -.00400000019
        inSlope: -.0160000008
        outSlope: -.0160000008
        tangentMode: 10
      m_PreInfinity: 2
      m_PostInfinity: 2
    attribute: m_LocalPosition.y
    path: epaule_g
    classID: 4
    script: {fileID: 0}
  - curve:
      serializedVersion: 2
      m_Curve:
      - time: 0
        value: 0
        inSlope: 0
        outSlope: 0
        tangentMode: 10
      - time: .25
        value: 0
        inSlope: 0
        outSlope: 0
        tangentMode: 10
      - time: .75
        value: 0
        inSlope: 0
        outSlope: 0
        tangentMode: 10
      - time: 1
        value: 0
        inSlope: 0
        outSlope: 0
        tangentMode: 10
      m_PreInfinity: 2
      m_PostInfinity: 2
    attribute: m_LocalPosition.z
    path: epaule_g
    classID: 4
    script: {fileID: 0}
  - curve:
      serializedVersion: 2
      m_Curve:
      - time: 0
        value: .374000013
        inSlope: 0
        outSlope: 0
        tangentMode: 10
      - time: .25
        value: .374000013
        inSlope: 0
        outSlope: 0
        tangentMode: 10
      - time: .75
        value: .374000013
        inSlope: 0
        outSlope: 0
        tangentMode: 10
      - time: 1
        value: .374000013
        inSlope: 0
        outSlope: 0
        tangentMode: 10
      m_PreInfinity: 2
      m_PostInfinity: 2
    attribute: m_LocalPosition.x
    path: epaule_d
    classID: 4
    script: {fileID: 0}
  - curve:
      serializedVersion: 2
      m_Curve:
      - time: 0
        value: -.0430000015
        inSlope: -.0279999971
        outSlope: -.0279999971
        tangentMode: 10
      - time: .25
        value: -.0500000007
        inSlope: .00600000285
        outSlope: .00600000285
        tangentMode: 10
      - time: .75
        value: -.0299999993
        inSlope: -.00600000285
        outSlope: -.00600000285
        tangentMode: 10
      - time: 1
        value: -.0430000015
        inSlope: -.0520000085
        outSlope: -.0520000085
        tangentMode: 10
      m_PreInfinity: 2
      m_PostInfinity: 2
    attribute: m_LocalPosition.y
    path: epaule_d
    classID: 4
    script: {fileID: 0}
  - curve:
      serializedVersion: 2
      m_Curve:
      - time: 0
        value: 0
        inSlope: 0
        outSlope: 0
        tangentMode: 10
      - time: .25
        value: 0
        inSlope: 0
        outSlope: 0
        tangentMode: 10
      - time: .75
        value: 0
        inSlope: 0
        outSlope: 0
        tangentMode: 10
      - time: 1
        value: 0
        inSlope: 0
        outSlope: 0
        tangentMode: 10
      m_PreInfinity: 2
      m_PostInfinity: 2
    attribute: m_LocalPosition.z
    path: epaule_d
    classID: 4
    script: {fileID: 0}
  - curve:
      serializedVersion: 2
      m_Curve:
      - time: 0
        value: -.00300000003
        inSlope: 0
        outSlope: 0
        tangentMode: 10
      - time: .5
        value: -.00300000003
        inSlope: 0
        outSlope: 0
        tangentMode: 10
      - time: 1
        value: -.00300000003
        inSlope: 0
        outSlope: 0
        tangentMode: 10
      m_PreInfinity: 2
      m_PostInfinity: 2
    attribute: m_LocalPosition.x
    path: tete
    classID: 4
    script: {fileID: 0}
  - curve:
      serializedVersion: 2
      m_Curve:
      - time: 0
        value: .00600000005
        inSlope: -.0340000018
        outSlope: -.0340000018
        tangentMode: 10
      - time: .5
        value: -.0109999999
        inSlope: 0
        outSlope: 0
        tangentMode: 10
      - time: 1
        value: .00600000005
        inSlope: .0340000018
        outSlope: .0340000018
        tangentMode: 10
      m_PreInfinity: 2
      m_PostInfinity: 2
    attribute: m_LocalPosition.y
    path: tete
    classID: 4
    script: {fileID: 0}
  - curve:
      serializedVersion: 2
      m_Curve:
      - time: 0
        value: 0
        inSlope: 0
        outSlope: 0
        tangentMode: 10
      - time: .5
        value: 0
        inSlope: 0
        outSlope: 0
        tangentMode: 10
      - time: 1
        value: 0
        inSlope: 0
        outSlope: 0
        tangentMode: 10
      m_PreInfinity: 2
      m_PostInfinity: 2
    attribute: m_LocalPosition.z
    path: tete
    classID: 4
    script: {fileID: 0}
  m_EulerEditorCurves: []
  m_HasGenericRootTransform: 0
  m_HasMotionFloatCurves: 0
  m_GenerateMotionCurves: 0
  m_Events: []
