%YAML 1.1
%TAG !u! tag:unity3d.com,2011:
--- !u!1 &161774
GameObject:
  m_ObjectHideFlags: 0
  m_PrefabParentObject: {fileID: 0}
  m_PrefabInternal: {fileID: 100100000}
  serializedVersion: 4
  m_Component:
  - 4: {fileID: 458514}
  - 114: {fileID: 11442708}
  m_Layer: 0
  m_Name: ActionGrabObject
  m_TagString: Untagged
  m_Icon: {fileID: 0}
  m_NavMeshLayer: 0
  m_StaticEditorFlags: 0
  m_IsActive: 1
--- !u!4 &458514
Transform:
  m_ObjectHideFlags: 1
  m_PrefabParentObject: {fileID: 0}
  m_PrefabInternal: {fileID: 100100000}
  m_GameObject: {fileID: 161774}
  m_LocalRotation: {x: 0, y: 0, z: 0, w: 1}
  m_LocalPosition: {x: 0, y: 0, z: 0}
  m_LocalScale: {x: 1, y: 1, z: 1}
  m_Children: []
  m_Father: {fileID: 0}
  m_RootOrder: 0
--- !u!114 &11442708
MonoBehaviour:
  m_ObjectHideFlags: 1
  m_PrefabParentObject: {fileID: 0}
  m_PrefabInternal: {fileID: 100100000}
  m_GameObject: {fileID: 161774}
  m_Enabled: 1
  m_EditorHideFlags: 0
  m_Script: {fileID: 11500000, guid: 64c8bcf503112e549b65e8de99b76c36, type: 3}
  m_Name: 
  m_EditorClassIdentifier: 
  action: 3
  displayLabel: Grab
  sprite: {fileID: 21300000, guid: 48d5b0b73ec0add41bc5a5c1d36031bd, type: 3}
--- !u!1001 &100100000
Prefab:
  m_ObjectHideFlags: 1
  serializedVersion: 2
  m_Modification:
    m_TransformParent: {fileID: 0}
    m_Modifications:
    - target: {fileID: 0}
      propertyPath: action
      value: 3
      objectReference: {fileID: 0}
    - target: {fileID: 0}
      propertyPath: displayLabel
      value: Grab
      objectReference: {fileID: 0}
    - target: {fileID: 0}
      propertyPath: sprite
      value: 
      objectReference: {fileID: 21300000, guid: 48d5b0b73ec0add41bc5a5c1d36031bd,
        type: 3}
    m_RemovedComponents: []
  m_ParentPrefab: {fileID: 0}
  m_RootGameObject: {fileID: 161774}
  m_IsPrefabParent: 1
